{
  "sq2": {
    "startingQuestion": false,
    "inputType": "textArea",
    "displayAs": "input",
    "questionType": "normal",
    "id": "sq2",
    "disclaimerText": {
      "en": null
    },
    "text": {
      "en": "<p>We'd&nbsp;appreciate&nbsp;your&nbsp;feedback!<\/p>\r\n"
    },
    "placeholder": {
      "en": ""
    }
  },
  "sq6": {
    "startingQuestion": false,
    "inputType": "text",
    "displayAs": "input",
    "questionType": "closing",
    "id": "sq6",
    "disclaimerText": {
      "en": null
    },
    "text": {
      "en": "<p>Thank&nbsp;you&nbsp;for&nbsp;your&nbsp;feedback!<\/p>\r\n"
    },
    "placeholder": {
      "en": ""
    }
  },
  "sq1": {
    "startingQuestion": true,
    "inputType": "radio",
    "displayAs": "buttons",
    "questionType": "normal",
    "id": "sq1",
    "disclaimerText": {
      "en": null
    },
    "text": {
      "en": "<p>Was&nbsp;this&nbsp;article&nbsp;helpful?<\/p>\r\n"
    },
    "placeholder": {
      "en": ""
    },
    "dependencies": {
      "next_question": "sq4",
      "No": "sq3"
    },
    "options": [
      {
        "id": "sq1_0",
        "name": "sq1",
        "text": {
          "en": "Yes"
        },
        "value": "Yes"
      },
      {
        "id": "sq1_1",
        "name": "sq1",
        "text": {
          "en": "No"
        },
        "value": "No"
      }
    ]
  },
  "sq3": {
    "startingQuestion": false,
    "inputType": "textArea",
    "displayAs": "input",
    "questionType": "normal",
    "id": "sq3",
    "disclaimerText": {
      "en": null
    },
    "text": {
      "en": "<p>Can&nbsp;you&nbsp;give&nbsp;us&nbsp;more&nbsp;details?<\/p>\r\n"
    },
    "placeholder": {
      "en": ""
    },
    "dependencies": {
      "next_question": "sq4"
    }
  },
  "sq4": {
    "startingQuestion": false,
    "inputType": "select",
    "displayAs": "input",
    "questionType": "normal",
    "id": "sq4",
    "disclaimerText": {
      "en": null
    },
    "text": {
      "en": "<p>To&nbsp;help&nbsp;us&nbsp;write&nbsp;better&nbsp;content&nbsp;for&nbsp;others&nbsp;like&nbsp;you,&nbsp;can&nbsp;you&nbsp;tell&nbsp;us&nbsp;what&nbsp;best&nbsp;describes&nbsp;you?<\/p>\r\n"
    },
    "placeholder": {
      "en": ""
    },
    "dependencies": {
      "next_question": "sq5"
    },
    "options": {
      "en": [
        "Choose one?",
        "Counselor\/Social Worker",
        "Criminal Justice Professional",
        "Healthcare Professional",
        "Public Health Professional",
        "Scientist",
        "Teacher\/Educator",
        "Military Personnel\/Family",
        "Parent\/Caregiver",
        "Concerned Friend\/Relative",
        "Student, Elementary or Middle School",
        "Student, High School",
        "Student, College\/Grad",
        "Other"
      ]
    }
  },
  "sq5": {
    "startingQuestion": false,
    "inputType": "select",
    "displayAs": "input",
    "questionType": "normal",
    "id": "sq5",
    "disclaimerText": {
      "en": null
    },
    "text": {
      "en": "<p>How&nbsp;often&nbsp;have&nbsp;you&nbsp;visited&nbsp;this&nbsp;site&nbsp;in&nbsp;the&nbsp;last&nbsp;6&nbsp;months&nbsp;[or&nbsp;12&nbsp;months]?<\/p>\r\n"
    },
    "placeholder": {
      "en": ""
    },
    "dependencies": {
      "Yes": {
        "destination": "sq2",
        "source": 1
      },
      "next_question": "sq6"
    },
    "options": {
      "en": [
        "Choose one",
        "This is my first visit",
        "1-2 times",
        "3-5 times",
        "5+ times"
      ]
    }
  }
}
